<?xml version="1.0" encoding="utf-8"?>
<!-- Generator: Adobe Illustrator 24.0.0, SVG Export Plug-In . SVG Version: 6.00 Build 0)  -->
<svg version="1.1" id="Layer_1" xmlns="http://www.w3.org/2000/svg" xmlns:xlink="http://www.w3.org/1999/xlink" x="0px" y="0px"
	 viewBox="0 0 528.7 70.1" style="enable-background:new 0 0 528.7 70.1;" xml:space="preserve">
<style type="text/css">
	.st0{fill:#FFFFFF;}
	.st1{opacity:0.1;}
	.st2{fill:none;}
	.st3{fill:none;stroke:#EFEFEF;}
	.st4{opacity:0.4;}
	.st5{fill:none;stroke:#989BA2;}
	.st6{fill:#9B9B9B;}
	.st7{fill:none;stroke:#565962;}
	.st8{opacity:0.87;}
	.st9{fill:#06A390;}
	.st10{font-family:'AppleSDGothicNeo-SemiBold-KSCpc-EUC-H';}
	.st11{font-size:30px;}
</style>
<title>logo5</title>
<path class="st0" d="M907.6-195c-2.5,0-4.4,2-4.4,4.4c0,2.5,2,4.4,4.4,4.4c2.5,0,4.4-2,4.4-4.4l0,0C912-193,910-195,907.6-195
	L907.6-195z"/>
<path class="st0" d="M1032.1-169.7c0-2-1.3-3.2-3.6-3.2h-21.1v22.8c0,1.2-0.9,2.2-2.1,2.3h-0.1h-5.8v-31.9h28.1
	c8.6,0,12.7,3.3,12.7,10.1v19.4c0,1.2-0.9,2.2-2.1,2.3h-0.1h-5.8L1032.1-169.7"/>
<path class="st0" d="M985.5-169.7c0-2-1.3-3.2-3.6-3.2h-21.1v22.8c0,1.2-0.9,2.2-2.1,2.3h-0.1h-5.8v-31.9h28.1
	c8.5,0,12.7,3.3,12.7,10.1v19.4c0,1.2-0.9,2.2-2.1,2.3h-0.1h-5.8L985.5-169.7"/>
<path class="st0" d="M1169.2-150.2v-19.6c0-2,1.3-3.2,3.6-3.2h14.8v-6.8h-13.7c-8.5,0-12.7,3.3-12.7,10.1v21.7h5.8
	C1168.2-148,1169.2-148.9,1169.2-150.2C1169.2-150.1,1169.2-150.1,1169.2-150.2"/>
<path class="st0" d="M1108.9-185.7c1.2,0,2.2-0.9,2.3-2.1v-0.1v-4.5h-8.2c-7.6,0-11.2,3.3-11.2,10.1v34.5h5.8c1.2,0,2.2-0.9,2.3-2.1
	v-0.1v-22.7h9c1.2,0,2.2-0.9,2.3-2.1v-0.1v-4.6h-11.3v-3.3c0-1,0.5-2.6,4.1-2.6h4.9V-185.7z"/>
<path class="st0" d="M1123.3-160.4h24.4c2.7,0,4.7-0.5,6-1.6c1.3-1,1.8-2.6,1.8-4.8v-6.1c0-4.7-2.5-6.9-7.8-6.9h-20.8
	c-7.9,0-11.7,2.8-11.7,8.4v14.2c0,6.2,3.8,9.3,11.7,9.3h25.7c1.2,0,2.3-1,2.3-2.2v-0.1v-4.5h-27.7c-2.5,0-3.9-1.1-3.9-2.9V-160.4
	L1123.3-160.4z M1123.3-170c0-1.8,1.4-2.9,3.9-2.9h16.8c2.2,0,3.5,1,3.5,2.8s-1.3,3-3.5,3h-20.7V-170z"/>
<path class="st0" d="M1054-160.4h24.4c2.7,0,4.7-0.5,6-1.6c1.3-1,1.8-2.6,1.8-4.8v-6.1c0-4.7-2.5-6.9-7.8-6.9h-20.8
	c-7.9,0-11.7,2.8-11.7,8.4v14.2c0,6.2,3.8,9.3,11.7,9.3h25.7c1.2,0,2.3-1,2.3-2.2v-0.1v-4.5h-27.7c-2.5,0-3.9-1.1-3.9-2.9V-160.4z
	 M1054-170c0-1.8,1.4-2.9,3.9-2.9h16.8c2.2,0,3.5,1,3.5,2.8s-1.3,3-3.5,3H1054V-170z"/>
<path class="st0" d="M915.2-160.4h24.5c2.7,0,4.7-0.5,6-1.6c1.3-1,1.8-2.6,1.8-4.8v-6.1c0-4.7-2.5-6.9-7.8-6.9h-20.8
	c-7.9,0-11.7,2.8-11.7,8.4v14.2c0,6.2,3.8,9.3,11.7,9.3h25.7c1.2,0,2.3-1,2.3-2.2v-0.1v-4.5h-27.7c-2.5,0-3.9-1.1-3.9-2.9
	L915.2-160.4L915.2-160.4z M915.2-170c0-1.8,1.4-2.9,3.9-2.9h16.8c2.2,0,3.5,1,3.5,2.8s-1.3,3-3.5,3h-20.7V-170z"/>
<path class="st0" d="M875.2-194.6c-2.2,0-4,1.8-4,4c0,0.9,0.3,1.7,0.8,2.4l16.6,18v21.8h8v-24.4L878.5-193
	C877.7-193.9,876.5-194.6,875.2-194.6z"/>
<g id="Group_11009">
	<g id="Ellipse_90-3" class="st1">
		<circle class="st2" cx="-321.9" cy="354.5" r="4.5"/>
		<circle class="st3" cx="-321.9" cy="354.5" r="4"/>
	</g>
	<g id="Ellipse_91-3" class="st4">
		<circle class="st2" cx="-321.9" cy="354.5" r="5.5"/>
		<circle class="st5" cx="-321.9" cy="354.5" r="5"/>
	</g>
</g>
<g id="Group_11010">
	<g id="Ellipse_90-4" class="st1">
		<circle class="st2" cx="-375.9" cy="85.5" r="7.5"/>
		<circle class="st3" cx="-375.9" cy="85.5" r="7"/>
	</g>
	<g id="Ellipse_91-4" class="st4">
		<circle class="st2" cx="-375.9" cy="85.5" r="9.5"/>
		<circle class="st5" cx="-375.9" cy="85.5" r="9"/>
	</g>
</g>
<g id="Group_11011">
	<g id="Ellipse_91-6" class="st4">
		<circle class="st6" cx="-356.9" cy="111.5" r="5.5"/>
		<circle class="st7" cx="-356.9" cy="111.5" r="5"/>
	</g>
</g>
<g id="Group_11052" transform="translate(-54.64 -40.853)" class="st8">
	<path id="Path_10386" class="st0" d="M105.3,44.6c-3.3,0-6,2.7-6,6c0,3.3,2.7,6,6,6c3.3,0,6-2.7,6-6
		C111.3,47.3,108.6,44.6,105.3,44.6C105.3,44.6,105.3,44.6,105.3,44.6z"/>
	<path id="Path_10387" class="st0" d="M273.2,78.6c0-2.8-1.7-4.3-4.8-4.3H240V105c0.1,1.6-1.2,3-2.9,3.1c-0.1,0-0.1,0-0.2,0l-1,0
		h-6.8v-43H267c11.5,0,17.1,4.5,17.1,13.7V105c0.1,1.6-1.2,3-2.9,3.1c-0.1,0-0.1,0-0.2,0l0,0h-7.8V78.6"/>
	<path id="Path_10388" class="st0" d="M210.4,78.6c0-2.8-1.7-4.3-4.8-4.3h-28.5V105c0.1,1.6-1.2,3-2.9,3.1c-0.1,0-0.1,0-0.2,0l-1,0
		h-6.8v-43h37.9c11.5,0,17.1,4.5,17.1,13.7V105c0.1,1.6-1.2,3-2.9,3.1c-0.1,0-0.1,0-0.2,0l0,0h-7.8L210.4,78.6"/>
	<path id="Path_10389" class="st0" d="M458.1,105V78.6c0-2.8,1.7-4.3,4.8-4.3h19.9v-9.2h-18.5c-11.5,0-17.1,4.5-17.1,13.7v29.3h7.8
		c1.6,0.1,3-1.2,3.1-2.9C458.1,105.1,458.1,105.1,458.1,105"/>
	<path id="Path_10390" class="st0" d="M376.8,57.1c1.6,0.1,3-1.2,3.1-2.9c0-0.1,0-0.1,0-0.2v-6.1h-11c-10.2,0-15.1,4.4-15.1,13.6
		v46.5h7.8c1.6,0.1,3-1.2,3.1-2.9c0-0.1,0-0.1,0-0.2V74.3h12.1h0c1.6,0.1,3-1.2,3.1-2.9c0-0.1,0-0.1,0-0.2v-6.1h-15.2v-4.4
		c0-1.3,0.7-3.6,5.5-3.6L376.8,57.1z"/>
	<path id="Path_10391" class="st0" d="M396.1,91.2h33c3.6,0,6.3-0.7,8-2.1c1.6-1.4,2.4-3.5,2.4-6.5v-8.2c0-6.3-3.3-9.3-10.5-9.3h-28
		c-10.6,0-15.8,3.7-15.8,11.4v19.1c0,8.4,5.2,12.5,15.8,12.5h34.6c1.7,0,3-1.3,3.1-3c0-0.1,0-0.1,0-0.2l0-0.5v-5.5h-37.1l-0.3,0
		c-3.4,0-5.3-1.4-5.3-3.9L396.1,91.2L396.1,91.2z M396.1,78.2c0-2.5,1.9-3.9,5.3-3.9h22.6c3,0,4.7,1.4,4.7,3.7c0,2.5-1.7,4-4.7,4
		h-27.9V78.2z"/>
	<path id="Path_10392" class="st0" d="M302.7,91.2h33c3.6,0,6.3-0.7,8-2.1c1.6-1.4,2.4-3.5,2.4-6.5v-8.2c0-6.3-3.3-9.3-10.5-9.3h-28
		c-10.6,0-15.8,3.7-15.8,11.4v19.1c0,8.4,5.2,12.5,15.8,12.5h34.6c1.7,0,3-1.3,3.1-3c0-0.1,0-0.1,0-0.2l0-0.5v-5.5h-37.1l-0.3,0
		c-3.4,0-5.3-1.4-5.3-3.9L302.7,91.2L302.7,91.2z M302.7,78.2c0-2.5,1.9-3.9,5.3-3.9h22.6c3,0,4.7,1.4,4.7,3.7c0,2.5-1.7,4-4.7,4
		h-27.9V78.2z"/>
	<path id="Path_10393" class="st0" d="M115.5,91.2h33c3.6,0,6.3-0.7,8-2.1c1.6-1.4,2.4-3.5,2.4-6.5v-8.2c0-6.3-3.3-9.3-10.5-9.3h-28
		c-10.6,0-15.8,3.7-15.8,11.4v19.1c0,8.4,5.2,12.5,15.8,12.5h34.6c1.7,0,3-1.3,3.1-3c0-0.1,0-0.1,0-0.2l0-0.5v-5.5h-37.1l-0.3,0
		c-3.4,0-5.3-1.4-5.3-3.9L115.5,91.2L115.5,91.2z M115.5,78.2c0-2.5,1.9-3.9,5.3-3.9h22.6c3,0,4.7,1.4,4.7,3.7c0,2.5-1.7,4-4.7,4
		h-27.9V78.2z"/>
	<path id="Path_10394" class="st0" d="M61.7,45.2c-3,0-5.4,2.4-5.4,5.4c0,1.1,0.4,2.3,1,3.2L79.6,78v29.4h10.8V74.6L66.1,47.4
		C65,46,63.4,45.2,61.7,45.2z"/>
</g>
<text transform="matrix(1 0 0 1 444.2263 67.7215)" class="st9 st10 st11">Admin</text>
</svg>
