<svg id="insert_drive_file-24px" xmlns="http://www.w3.org/2000/svg" width="32" height="32" viewBox="0 0 32 32">
  <path id="패스_10308" data-name="패스 10308" d="M0,0H32V32H0Z" fill="none"/>
  <path id="패스_10309" data-name="패스 10309" d="M7,2A2.9,2.9,0,0,0,4.015,4.8L4,27.2A2.9,2.9,0,0,0,6.985,30H25a2.914,2.914,0,0,0,3-2.8V11.562a2.664,2.664,0,0,0-.885-1.974L19.87,2.826A3.057,3.057,0,0,0,17.755,2H7Zm10.5,8.4V4.1l8.25,7.7H19A1.457,1.457,0,0,1,17.5,10.4Z" fill="#fff"/>
</svg>
