<svg xmlns="http://www.w3.org/2000/svg" width="19.592" height="13.216" viewBox="0 0 19.592 13.216">
    <path id="prefix__XMLID_31_" d="M15.757 30.2a.912.912 0 0 1-.661-.273.929.929 0 0 1 .023-1.3l5.24-5.035-5.24-5.035a.918.918 0 1 1 1.281-1.316l5.923 5.7a.935.935 0 0 1 0 1.321l-5.923 5.7a.979.979 0 0 1-.643.238zm-5.262-.273a.929.929 0 0 0-.023-1.3L5.233 23.6l5.24-5.035A.918.918 0 1 0 9.2 17.241l-5.923 5.7a.935.935 0 0 0 0 1.321l5.923 5.7a.979.979 0 0 0 .638.251.951.951 0 0 0 .657-.283z" transform="translate(-3 -16.987)" style="fill:#bfbfbf"/>
</svg>
