<svg id="settings-24px" xmlns="http://www.w3.org/2000/svg" width="32" height="32" viewBox="0 0 32 32">
  <path id="패스_10302" data-name="패스 10302" d="M0,0H32V32H0Z" fill="none"/>
  <path id="패스_10303" data-name="패스 10303" d="M26.486,17.372a10.825,10.825,0,0,0,.1-1.372,10.825,10.825,0,0,0-.1-1.372l2.978-2.31a.7.7,0,0,0,.169-.9L26.811,6.578a.712.712,0,0,0-.861-.308l-3.514,1.4A10.331,10.331,0,0,0,20.051,6.3l-.536-3.71A.686.686,0,0,0,18.823,2H13.178a.686.686,0,0,0-.691.588L11.951,6.3A10.863,10.863,0,0,0,9.566,7.67L6.052,6.27a.691.691,0,0,0-.861.308L2.369,11.422a.687.687,0,0,0,.169.9l2.978,2.31A11.016,11.016,0,0,0,5.417,16a11.016,11.016,0,0,0,.1,1.372l-2.978,2.31a.7.7,0,0,0-.169.9l2.822,4.844a.712.712,0,0,0,.861.308l3.514-1.4A10.331,10.331,0,0,0,11.951,25.7l.536,3.71a.686.686,0,0,0,.691.588h5.645a.686.686,0,0,0,.691-.588l.536-3.71a10.864,10.864,0,0,0,2.385-1.372l3.514,1.4a.691.691,0,0,0,.861-.308l2.822-4.844a.7.7,0,0,0-.169-.9ZM16,20.9A4.9,4.9,0,1,1,20.94,16,4.925,4.925,0,0,1,16,20.9Z" fill="#fff"/>
</svg>
