<svg xmlns="http://www.w3.org/2000/svg" width="11.129" height="7.651" viewBox="0 0 11.129 7.651">
  <g id="mail" transform="translate(0 -80)">
    <g id="그룹_11521" data-name="그룹 11521" transform="translate(7.377 81.411)">
      <g id="그룹_11520" data-name="그룹 11520">
        <path id="패스_10629" data-name="패스 10629" d="M339.392,147.368l3.752,2.372V144.9Z" transform="translate(-339.392 -144.896)" fill="#06a390"/>
      </g>
    </g>
    <g id="그룹_11523" data-name="그룹 11523" transform="translate(0 81.411)">
      <g id="그룹_11522" data-name="그룹 11522">
        <path id="패스_10630" data-name="패스 10630" d="M0,144.9v4.844l3.752-2.372Z" transform="translate(0 -144.896)" fill="#06a390"/>
      </g>
    </g>
    <g id="그룹_11525" data-name="그룹 11525" transform="translate(0.021 80)">
      <g id="그룹_11524" data-name="그룹 11524" transform="translate(0 0)">
        <path id="패스_10631" data-name="패스 10631" d="M11.373,80H1.635a.687.687,0,0,0-.675.592L6.5,84.244l5.544-3.652A.687.687,0,0,0,11.373,80Z" transform="translate(-0.96 -80)" fill="#06a390"/>
      </g>
    </g>
    <g id="그룹_11527" data-name="그룹 11527" transform="translate(0.022 84.302)">
      <g id="그룹_11526" data-name="그룹 11526" transform="translate(0 0)">
        <path id="패스_10632" data-name="패스 10632" d="M7.742,277.921l-.984.648a.349.349,0,0,1-.383,0l-.984-.649-4.367,2.762a.686.686,0,0,0,.673.587h9.738a.686.686,0,0,0,.673-.587Z" transform="translate(-1.024 -277.92)" fill="#06a390"/>
      </g>
    </g>
  </g>
</svg>
